*** Life<Cell> 7x16 ***

Generation = 0, Population = 41.
-00--0---0-0-0--
---0---0--0--0--
-0--0--0--00--00
-----0----0-000-
00--------0---00
00-000--0-0000--
0------------000

Generation = 2, Population = 56.
1-*--0-1--1---1-
-0---1--10*1-*01
1--0--1-11**-10-
10-000----0-*-*1
-0111--01-00---*
*0-----10000---0
*00-------110---

Generation = 4, Population = 60.
--*-1-0---.0-1.-
10-11.0-1**-0*0*
*-1*--111...11*-
-0----0-0-00*1.-
1--.1-1--1*-00-*
.*1-1-11*--*--1*
***----1-01*-10*

Generation = 6, Population = 53.
-1*-.-**-1.01*.1
1-0-1.0*-..*0.**
*0**0-.-...**-.-
*-0**-01--0-.*.*
-*-..--0-..--01*
..-1.11*.11.011.
...--00*--1.-*-.

Generation = 8, Population = 49.
-**-.***-1.-**.*
*---..-***..*.**
*0..*1*1.....1.-
*--.*-*---0-.*.*
-*-**1*--..---.*
..-1*1....-.*1-*
...1---*11**1.1.

Generation = 10, Population = 55.
-*.-.***-**1***.
.-11*.1..*......
.*.*.1.-**.***.1
*-0..1*111--.*..
1*1...*--..-1-.*
..**.-..**-.**-*
..**-1**1-**-*1.

*** Life<Cell> 4x2 ***

Generation = 0, Population = 8.
00
00
00
00

Generation = 2, Population = 4.
00
--
--
00

Generation = 4, Population = 4.
--
**
**
--

Generation = 6, Population = 0.
--
..
..
--

Generation = 8, Population = 0.
--
..
..
--

Generation = 10, Population = 0.
--
..
..
--

Generation = 12, Population = 0.
--
..
..
--

Generation = 14, Population = 0.
--
..
..
--

Generation = 16, Population = 0.
--
..
..
--

*** Life<Cell> 7x14 ***

Generation = 0, Population = 49.
--0---00-0-0-0
0000-0-0-00-0-
--0000--00-0--
-0----00-0--00
000---0--00-0-
-0--000---0-00
0---0-0-00-0-0

Generation = 1, Population = 54.
0-1---1--10-0-
1---0101011---
00-1---0110-00
-1000--10----1
1-100---0----0
01-0--100010--
---0101-110-01

Generation = 2, Population = 48.
1--00-*------0
--0-1-1*1-*0-0
--0*00-1-*--1-
0-1--00-1-0---
*----000--0001
-*0-0----1*1--
000----0-*-01*

Generation = 3, Population = 48.
-0-1--*-0-0001
101--1-.*1*101
001.1--*-.0---
1-*--1---01--1
*-----11--11-*
0.----1-0-.*0-
11-01-1--*0--.

Generation = 4, Population = 43.
-11-0-.-11-11-
-------.*-.*1-
11*.-00.-.--1-
-1*0----11*-0*
*01----*----0*
-.-000-0--..1-
-*-1*-*0-*1-1.

Generation = 5, Population = 54.
1**--0.0-*---1
1---111**-*.*1
**.*111*-.0---
1*.1010-*-.-1.
*1-0001*-0111.
0.--111-01..--
1.--.0*--.*-*.

Generation = 6, Population = 32.
-*.1-1.11*---*
-01---*..1***-
....---.1.10-0
*..*--1-*-.-*.
.------.-----.
-.----*01-..--
*.--*-*01*.-..

Generation = 7, Population = 29.
1*.---**-*-1-.
1-*---*..-...1
.**.---.*.----
....01--.1.-*.
.--0---.----1.
0.--11*1--..--
..-1.-*1**.-..

Generation = 8, Population = 40.
-*.--1**-.--1.
*-*0-1*.*1...-
.***111...--10
..**1*1-.-.0..
.-1-0-1.-0-1*.
-.-0*-.--1..1-
..0-*-.**..-..

Generation = 9, Population = 44.
-**10-.*-.-1-.
*-.-1*..**..*1
....*-*...--*1
....-.*1.1*1.*
.1*--0*.01--*.
-.01*1.1-****0
..-1*0..*..-..

*** Life<Cell> 7x1 ***

Generation = 0, Population = 7.
0
0
0
0
0
0
0

Generation = 2, Population = 2.
-
0
-
-
-
0
-

Generation = 4, Population = 0.
-
-
-
-
-
-
-

Generation = 6, Population = 0.
-
-
-
-
-
-
-

Generation = 8, Population = 0.
-
-
-
-
-
-
-

Generation = 10, Population = 0.
-
-
-
-
-
-
-

*** Life<Cell> 4x14 ***

Generation = 0, Population = 39.
-000--0--00000
---000000-00-0
00--0000--000-
0000000-00000-

Generation = 2, Population = 26.
-*0-0-----*-00
1----*0**1----
0001*0-0-0-0--
0-0--*-1---*--

Generation = 4, Population = 28.
-**-00*111.---
*--1*.0..11---
--*-.-1---1-1-
---01*0**1*.10

*** Life<Cell> 8x10 ***

Generation = 0, Population = 47.
0000-0---0
-00-0-000-
000----00-
0-0--00000
0----0--0-
00--00--00
000-0-00-0
0--000000-

Generation = 1, Population = 42.
11110--0--
0110-011--
-11000011-
-0100--1-1
--0------0
1--0------
1110-----1
1--11-111-

Generation = 2, Population = 38.
-***1--10-
---1--**--
-*--111-*-
0--1---*0*
0-100--001
*-010-----
*--1--00--
*---*-*-*-

Generation = 3, Population = 35.
1.***0--10
---*0-..0-
-.10*---.-
1--*00-.-.
-----00-1-
*----00-00
*1-*00-1--
.0--.-*1.0

Generation = 4, Population = 31.
-.*..101-1
0-1.1-..1-
0.*-.---.-
-0-.1--.0.
---0-1--*-
*--1-1-0-1
*--.---*--
*101*-*-*-

Generation = 5, Population = 37.
1*.*.*-*1-
1--.--**--
1.*0.---.-
---*---.1.
00110*0-*-
.00*-*-10-
*-1.00-*-1
*---.-.1.0

Generation = 6, Population = 42.
-*....0**1
--1*--**--
***-.-11.-
-01.-00**.
11*--*10*1
.--.-.0---
*1*.1--*0*
.10-.0**.1

Generation = 7, Population = 42.
1.*...-.**
11-*10..-0
*..-.-**.-
11**1--..*
***10.-1.*
.--*0.11--
****--0.-*
*--1.1**.*

Generation = 8, Population = 36.
*.***.-.**
**1*-1**-1
...-.-*.*-
**..-00*..
*..-1.-*..
.-0.-.--0-
**..---.0.
*--******.

Generation = 9, Population = 46.
*...**0***
*.*.1**.-*
...0*1..*-
**..-11.*.
*..1-*-**.
*--.0.--11
****100.-*
*-0.*****.

*** Life<Cell> 7x4 ***

Generation = 0, Population = 23.
0-0-
000-
0000
0000
00-0
00-0
0000

Generation = 2, Population = 13.
-1*1
**--
---0
-0-*
**1-
---0
-*--

Generation = 4, Population = 11.
1-*.
*.1-
*---
1--.
*..-
----
1*11

Generation = 6, Population = 13.
.1..
*.*1
*1--
-*-.
.*.0
----
**1*

Generation = 8, Population = 16.
.1**
..**
*-0*
-*-*
..*0
-110
.*-.

Generation = 10, Population = 10.
....
..*.
.*0.
1.1.
.**-
-1*-
.*-.

Generation = 12, Population = 14.
....
.***
.*-*
1.-*
**.-
-*.1
**1.

Generation = 14, Population = 12.
..*.
*..*
*.**
..**
*..-
-.*-
**..

Generation = 16, Population = 8.
....
....
..**
.*.*
.*.*
-*.*
....

Generation = 18, Population = 9.
....
....
..**
**.*
**..
**..
....

*** Life<Cell> 4x3 ***

Generation = 0, Population = 12.
000
000
000
000

Generation = 2, Population = 6.
---
*0*
*0*
---

Generation = 4, Population = 2.
-*-
.-.
.-.
-*-

Generation = 6, Population = 8.
-*-
***
***
-*-

Generation = 8, Population = 4.
0.0
...
...
0.0

Generation = 10, Population = 0.
-.-
...
...
-.-

*** Life<Cell> 4x20 ***

Generation = 0, Population = 48.
--0000-00-00-00-0000
00000-0----00-000000
0---0--000---0-0---0
0-0000-0--00--00-00-

Generation = 2, Population = 42.
-0--**-**0---*-10---
00*-*-0101-0*-0--*--
0-010---0*-0--00001-
---0**--0-*-1--00*--

Generation = 4, Population = 38.
0*--..-*.-*10.1.-1--
--.-.--.0*00.-*-*.11
---**---*.-*110-*-.*
*--0**1-*-.-111-**10

Generation = 6, Population = 38.
*.--..-*.0**-***----
1*.*.-1.0**-.0.1**.-
*--**--1**0**.--*-..
.1--.**-*-.--*-0**1-

Generation = 8, Population = 24.
*.0*..0..-..-.*.-*1-
.....1-*-..-.-.-.*.-
*1-..--.**-..*-*.1.*
.--1...**-*--.1-...1

Generation = 10, Population = 32.
.**...0..-..-.****.-
..**.-*.0..-.***...*
*.1*.--..*1..**.**.*
.--1....*-*-1.1-.**.

Generation = 12, Population = 29.
..*...***0..1......-
.*.**-..0..1*...***.
..1.*01*..-*........
.11....**1*-1..-..*.

Generation = 14, Population = 23.
..**...*.-.**......-
.*..*1.*-.*1*....**.
.**.*--*..-.........
..1**....-.*1..-....

*** Life<Cell> 7x7 ***

Generation = 0, Population = 34.
-0-0000
-00--00
--0000-
--00000
00-00--
00000--
0000000

Generation = 1, Population = 29.
0101-1-
0--001-
--11110
0----11
---11-0
1-1-1-0
-1111-1

Generation = 2, Population = 23.
----0*0
1-011*-
-0***--
-00-0-*
---*-0-
-0*----
-**---*

Generation = 3, Population = 20.
0-0--.1
-0-*-.-
--...-0
0---11.
--0*1--
1-.--00
0**1-0.

Generation = 4, Population = 21.
-1---.-
--0.1.-
00..*--
-00--*.
-01*-00
*-.---1
-***-1*

Generation = 5, Population = 20.
0---0.-
10-**.-
1-..*--
-1---**
--**---
*0.--0-
-**.-**

Generation = 6, Population = 29.
1---1.-
*1-***-
*0***-0
---0-*.
00*.1-0
*-.011-
-**.1**

Generation = 7, Population = 18.
*---**-
.-0...-
*1...--
--01-.*
--*.*--
*0.1--1
-**.-.*

Generation = 8, Population = 18.
.101..1
*--...-
.*.*.-0
0--*-..
0-..*0-
*-.--1*
-**.-..

*** Life<Cell> 10x13 ***

Generation = 0, Population = 19.
-------------
---0------0--
-0-----0---00
-----00--0---
----0------0-
-0----0--0-0-
-------------
------------0
-------------
-----000-----

Generation = 2, Population = 51.
-0-----0---00
-1----0-01--1
---101----0**
-1--0-*-101--
-10---00-0-*1
---011011--*1
----0------1-
-0---0-0-0010
-------------
---01-0-10--0

Generation = 4, Population = 46.
-*--0--0----0
-.-1---1-.01-
-0-.-.-00-0**
-.0--*.-.*1--
1------00--*-
-10**1*..-1*1
-1-----0----1
-------00*0.-
----1------1-
--1*.-0-*-1-0

Generation = 6, Population = 75.
-*10011-10-10
-.11----1.01*
1-0*1.--*1*.*
-*---.*-..11-
1111101*-11.1
010..1*..1**1
1*---1--0-0-*
-1--1-100.*.-
-01---11---10
01****-1.1--0

Generation = 8, Population = 74.
-..---*-1*1--
1...1----*-*.
1-0.*.11*1*.*
-.101..0***.1
-1.11*1.11*.*
-10.**.**1*.*
1.-01*11*10**
-10--11*-...1
-*1-1--.0--*-
***.**-**1-0-

Generation = 10, Population = 53.
1*.---*-***--
*.*..-0--.-*.
*0-...***-...
-.-**.*0....-
-**11....1...
1-*..*.*.1..*
-.--*..1.**.*
-----1*.1...*
0*.-.1-.-01.0
.*..*.0***1-*

Generation = 12, Population = 52.
1..-0*.-...1-
*.*.*10-1.0..
**1***...*...
1.-**..-.*..-
-*.*-..*.....
--...***.-.*.
*.--*..**.*.*
1--0--..-*.*.
*.*0*.*.*0-.0
**..*.*.*.--.

Generation = 14, Population = 55.
***-0..1...1-
*.**.1-1-*-..
*....**...*..
..-***.-....-
-.**1*.**....
***......1**.
**--..*****.*
--0-*-..-...*
*..*.*.**0-*0
*.*.*...**--.

Generation = 16, Population = 56.
..*-0*..*..1-
*...***.-.-..
.***...*.....
.*1..**-**..-
*...*.*****..
*..**....1**.
.*--.*.....**
1-0**-**1..**
..*..**.*0-*-
..***.*.*.--.

*** Life<Cell> 4x20 ***

Generation = 0, Population = 49.
-000--0-0--00-0000--
0000-0-0-0---000-00-
0--00--0--000000-0--
0-0-000-0-00-0000000

Generation = 1, Population = 38.
--1-0--0--0110-1----
-1110-010---0--10110
--0--0-1---1---10-00
1--0--10----0-11-1-1

Generation = 2, Population = 41.
--*010-1-01-*1-*-000
0*---01-10001-0*1-*-
0-10------0-0--*---1
-0--0-*-0-----*-0-0*

Generation = 3, Population = 43.
0-*---0-0--1**0*0111
-.1---*1*1--*01.*1.0
1-*1-0----11100.0-0*
------.--00-00.1--1*

Generation = 4, Population = 31.
--.0-0111-1*..1.1*--
-.----*-**-0.-*..-.-
--**---100-----.10-.
1-00-0.-01-0--.--1-*

Generation = 5, Population = 27.
--.--1*--0**..***.1-
-.1---.-..01.0...-.-
10**00-*-11---0.*-0.
------.-----0-.--*-.

Generation = 6, Population = 37.
--.-1*.111.**.**..-1
0.*-0-.1*.1-*-..*-.-
*-**-1-.-*--1--..0-.
100000.0-100-0.--*-.

Generation = 7, Population = 40.
0-.0-**-******.*..1-
1.*110.-..-1*0.**-.0
*0..-*0*-.1-*--.*10.
--11--*----10-.-0.1.

Generation = 8, Population = 35.
10*11**-.**..*.**.--
-.**-1.1*.1-.-.*.-.-
*1..-.1*0.--.--..--*
1-**0-*----*-0.11.*.

Generation = 9, Population = 38.
*-.*-**-***...***.--
-...1*.-..*1.0***-.0
**..0.-.-*11.0-**--.
*0**1-*-0-0.--.**...

Generation = 10, Population = 31.
.0..1**-.***.*..*.-1
-*.*-.*-*..-.-...1.-
*...-.1.-.--.10..1-.
*1**--.--11*-0***...

Generation = 11, Population = 39.
.1*.***1.**.......1-
-**.-.*-.**1*-*.***0
*..*-.**0*11*--..*0.
*-*.1-.-0*-.--.**...

Generation = 12, Population = 31.
.-**.*****........*-
-...1..1...**-..*..1
*..*-**.1.***10...-*
.-.*-0.--.-*0-..**..

Generation = 13, Population = 26.
.1.******..........-
1.*.-..*.....-....**
...*0***-.*..-1***0.
.-..-1*-0.-.--......

Generation = 14, Population = 26.
.-*******..........1
-**.-........-.**.**
...*-...-....1****-*
.-..--.0-.1.--.***..

Generation = 15, Population = 25.
.-******..........**
1*..1***.....0.....*
..*.0...-....*....0*
.-..--.-0.-.-0...**.

Generation = 16, Population = 28.
.-**...*..........**
**..*..*.....1......
.*.*1.**1...***..*-*
.-..1-.0-.-.01...***

Generation = 17, Population = 30.
.-**................
**..**......***....*
*****.*.*.....*..*0*
.1.**1*1-.-.--*..*.*

*** Life<Cell> 9x16 ***

Generation = 0, Population = 56.
0--00--0--0-----
000-0---0--000--
0-00------0-0-0-
0---0---0---0---
-----0--0-00--00
-0-000--00-0--0-
----0---0-0----0
000--00-0-0-----
0--0-0-000-0---0

Generation = 2, Population = 77.
*00-0-1001----0-
*--0----01-***00
010*---0--01---1
--10-0---1--*1--
1-0-1-11-1*-0-0-
----*-1--*-*-1--
1-10---101--0000
-0*000*101*00-0-
-00-0*1*-*-----0

Generation = 4, Population = 64.
.0--00*0---1-0*0
.1----11--1...--
---.------*1-0-*
-0*0-00-*.-0.*--
-0--.*1*0..--0--
-00-.-.--.1.0.*1
1-1-*1-1-*11-*-*
00*-*-.1-1.---*-
-001-*.*-*-11-00

Generation = 6, Population = 55.
.-*--0.0*-0-0-.*
..11*---1**.*.--
0--.------.-0-0*
*-.-----..0*.*--
*---.**.0..1-*0*
----.0.--...0*.-
.--0.*-.1**.1*-.
--.*.*.1-1.0--.-
--**1*..-.0**00*

Generation = 8, Population = 61.
.-*11-.**----*..
..1-*0-1-.*...*0
---*--0011.---**
.1.1---0..-...10
.110***.-*..*.0.
---*.-.-1...0**-
.0*-.*1**...-***
-1.....1-..---*-
11*.-**.1**.*0-.

Generation = 10, Population = 62.
.**1--*.*-*--*..
...-.**1*.*.***-
1*1.00---*.-1**.
..*10---..1..*.0
.11-.*..-*....0.
-01..0*-**..0..1
.0.1..-.....1...
01**..*.*..11-*0
.*..-.*..*..**0.

Generation = 12, Population = 58.
..***-.*.1.--.*.
*..**..-*...*..1
**1.-01-1..*-...
*..-01-1..1.*.*-
*-*-..**-.**.*-.
1*1..-*-....**.-
*0...*-..***-..*
*-**..**..**.-.*
**..-......*..-*

Generation = 14, Population = 64.
.....1.**-.1-...
....*.*1..**.*.-
*.*.1-*1...****.
*..*-1-......**-
*-.-*.*.-.***.0*
*.1**-.0.**..***
.-...*-*.**.1...
.-**.*****.*.-**
.**.-.....**.*1*

Generation = 16, Population = 56.
.....-.**-****..
...*****.....*.1
..*..1.-.***....
*..*---*....*..-
**.1.**.0***..-.
*...*-.-..**....
.0....**....-...
.-.......****0.*
.*..-***********

Generation = 18, Population = 44.
...*.-.**1..*.*.
...*...*.**...*1
..*..*.1*..**...
*...*1-...*.**.-
*....*..**.**.-.
*.*.*-.-..***...
.-......*...-...
.-...****....-..
....-***........

*** Life<Cell> 4x8 ***

Generation = 0, Population = 28.
00000000
00-0-000
-0000000
00-00000

Generation = 2, Population = 15.
0*----*-
--00-*0*
---0*0-*
*0----*-

Generation = 4, Population = 14.
-*0--1*-
---0-*-*
--00*-0*
*---*-.-

Generation = 6, Population = 13.
-.*11-.-
0--*-.1*
1---.--*
*--0*-.1

Generation = 8, Population = 15.
*.****.1
--1.0..*
---1*--*
.--**-*.

Generation = 10, Population = 20.
*.**.***
****0..*
11-1*--.
.11**-..

Generation = 12, Population = 7.
......**
....-*.*
-.-..11.
.--.*-..

Generation = 14, Population = 7.
.....***
....-..*
-.-.*1*.
.--..-..

Generation = 16, Population = 5.
......**
....-*.*
-.-..-*.
.--..-..

*** Life<Cell> 8x18 ***

Generation = 0, Population = 44.
-----0------0---0-
0-0-0--0-0-----0-0
---00-0--0---0----
0-0-----0------0--
000-----0------0-0
----0--0--0-00----
00-0--00-----0----
-0--0--0-0-0-0--00

Generation = 2, Population = 72.
----0011-10-01--0-
0-0-*0000*-0-1----
0---0-00----1---01
*---1-1--0--0--*--
0001--00-11--1-*--
00--010*--0-*01-01
---01----1-1-----1
-*10-10*-0000*1-*-

*** Life<Cell> 1x20 ***

Generation = 0, Population = 6.
-----0-0-0---0----00

Generation = 2, Population = 7.
---0-0---0-----001-*

Generation = 4, Population = 8.
-0-0-0-----0-01*-.1.

Generation = 6, Population = 7.
-0---0-0-0-00-1.-.-.

Generation = 8, Population = 5.
-----0----0**1-.-.-.

Generation = 10, Population = 8.
---0---001-****.-.-.

Generation = 12, Population = 4.
-0----1*-.1.....-.-.

*** Life<Cell> 10x17 ***

Generation = 0, Population = 70.
0---0--00-00-0--0
-00-------------0
-0-0000--0--0000-
0-00----00--00--0
0--00---0----0-0-
-------0-00---0--
--0--000-0----0-0
---0--0----00--00
0---0-00--0-0--0-
-0000-00-0--0000-

Generation = 1, Population = 88.
--00-0011-11--001
--1--00000000-0-1
-1----10-100-1-10
10110000--00-1-0-
10--10--100--10--
0-0000-10-10--1-0
-0--011--1-000101
0------0-0-1-0---
--001-1-0--0-----
-1---------0----0

Generation = 2, Population = 86.
-0-1--1*-0---0---
--*-0---11--101--
-*0000*10--10*0--
----111--01---01-
*-00*1-0--100---0
1-1--10*-----0-01
0----**0-*01-1*--
--00-00-01--01-00
0-1-*--0--0-00--0
0--00-0-0-010--0-

*** Life<Cell> 6x7 ***

Generation = 0, Population = 20.
0000---
00-0--0
-0----0
-00--0-
0---00-
00---00

Generation = 2, Population = 21.
0*--101
0--*1-*
-00--0*
0--10*-
*1-1---
----0--

Generation = 4, Population = 16.
-*1----
-*-.--.
1--110.
*1--0.-
..-.-*0
--00-11

Generation = 6, Population = 13.
1*.--0-
1.-.*-.
.-*..-*
..*-*.-
..-.-.0
0-*-0--

*** Life<Cell> 9x17 ***

Generation = 0, Population = 52.
--0----0--00--00-
--0--0-0-000--0-0
--0------00------
-0---0--00-0-0--0
-0--0--0----0----
--00--000---00--0
-------00---0-0--
-----00------00--
0-0------0000-00-

Generation = 2, Population = 64.
0---01-*10-0--0*0
01-11----0----*-0
00*----10-0---10-
---0-0--*--01--10
---0-00*1---*----
0-------------01-
001-0110--01*--11
--1-1-*----1-*-0-
0---0---------0*1

Generation = 4, Population = 74.
*0100.0.10--1-0.0
*11*--0-1-----*0*
0*.1-1-*0-001110-
--0-0*0-.------1-
-1-*-00*11-0.---1
*--*10101--------
0--00-*-1-*..01.*
--*---.-00-.1.---
011--1-0--01---.*

Generation = 6, Population = 75.
.-*--*-*1*1-10-.*
.-..-0-*1-1-0-.-*
0***1*-*----1-.*-
1*--*.0-.---*10*1
--1.0*0...00.-00-
*0****1-.-11---1-
-11-0*.-11.*.*.*.
--*0-*.-0--*1*-0-
-1-1--0----*101..

Generation = 8, Population = 64.
.****.1.**1-1**..
.*..--1.-**--0.1.
-***.*-*0-*1--..-
-.--*.-0.011.--.*
--**-*-*..00.0--1
*-.*..--.01.--111
11*00*.-1**......
--.--*.--11...-*-
-1**-------.*-*..

Generation = 10, Population = 65.
.******.*.-0***..
*...*-..-*.-0-.-.
-.....-.--.-***.-
1.--..--*-1*.*1..
-*.**.1..**0*-0--
*-...*-**0*.11.11
-1.*-*.-*.**.....
1-.0-*.011-*..1*1
-*..*-0-0**..-...

Generation = 12, Population = 59.
.*..**....*-**...
.*..*-..1..0-**-.
-.**..0****1.***-
1.0-***1.*-..**..
-*.*..1...*-.---*
.-.*..-**-..1*..*
*-..-..-....**...
--***..-1--...***
-..*.--10....-***

Generation = 14, Population = 55.
....**.....-.*...
.*.**0.....--.*1.
-.*..*0...*-.*..1
1.*1...-..*..*..*
0*.*....**.*.-**.
**....-*.*.*-***.
.*..1..-..*.*....
*1....*1.*1..*..*
1...*-1*-....*.*.

Generation = 16, Population = 63.
..**.......-.***.
..**.-.....10*.*.
1*.*.**...**....*
**.-**.-.*...****
*.......**...-.**
......****.***.**
....-**1**.....*.
*-....*1**-**.**.
**...--*-*..*.*..

*** Life<Cell> 5x11 ***

Generation = 0, Population = 19.
--0-00-----
--0-0---00-
0--0-000000
----------0
--------000

Generation = 2, Population = 22.
--------110
1-*-*--0---
01-0-*0-*-0
--0-0----10
0--0-0--*--

Generation = 4, Population = 27.
10*011-0*1-
*1.-*-0-1-0
-*-0-.*-.-*
------1--.0
0-00-0-1*--

*** Life<Cell> 10x9 ***

Generation = 0, Population = 4.
---------
---0-----
---------
---------
------0--
---------
---------
---------
----0----
--------0
